The hyfer package
…
This function, like other plot...() functions in hyfer, allows you to return the dataset underlying the plot in addition to (or instead of) producing the plot.

plot_total(ho,
           unit='weeks', 
           type='coughs', 
           print_plot = FALSE, 
           return_data = TRUE)
#> $data
#> # A tibble: 43 × 2
#>    x                       y
#>    <dttm>              <dbl>
#>  1 2020-11-05 23:00:00   336
#>  2 2020-11-10 23:00:00   564
#>  3 2020-11-17 23:00:00   933
#>  4 2020-11-24 23:00:00  1073
#>  5 2020-12-01 23:00:00  1379
#>  6 2020-12-08 23:00:00  1710
#>  7 2020-12-15 23:00:00  2005
#>  8 2020-12-22 23:00:00  2059
#>  9 2020-12-31 23:00:00  2247
#> 10 2020-12-29 23:00:00  2247
#> # … with 33 more rows
…
